<?xml version="1.0" encoding="UTF-8"?>
<robot generator="Robot 7.1.1 (Python 3.13.1 on win32)" generated="2025-01-04T12:08:54.720540" rpa="false" schemaversion="5">
<suite id="s1" name="Reqres" source="D:\Programming\Projects\reqres_api_automation\tests\reqres.robot">
<kw name="Create Session" owner="RequestsLibrary" type="SETUP">
<msg time="2025-01-04T12:08:55.171615" level="INFO">Creating Session using : alias=reqres, url=https://reqres.in/api, headers={},                     cookies={}, auth=None, timeout=None, proxies=None, verify=False,                     debug=0 </msg>
<arg>reqres</arg>
<arg>https://reqres.in/api</arg>
<doc>Create Session: create a HTTP session to a server</doc>
<status status="PASS" start="2025-01-04T12:08:55.171462" elapsed="0.000341"/>
</kw>
<test id="s1-t1" name="Create New User" line="11">
<kw name="Create Dictionary" owner="BuiltIn">
<msg time="2025-01-04T12:08:55.172875" level="INFO">${headers} = {'Content-Type': 'application/json'}</msg>
<var>${headers}</var>
<arg>Content-Type=application/json</arg>
<doc>Creates and returns a dictionary based on the given ``items``.</doc>
<status status="PASS" start="2025-01-04T12:08:55.172622" elapsed="0.000279"/>
</kw>
<kw name="POST On Session" owner="RequestsLibrary">
<msg time="2025-01-04T12:08:55.856551" level="INFO">POST Request : url=https://reqres.in/api/users 
 path_url=/api/users 
 headers={'User-Agent': 'python-requests/2.32.3', 'Accept-Encoding': 'gzip, deflate', 'Accept': '*/*', 'Connection': 'keep-alive', 'Content-Type': 'application/json', 'Content-Length': '48'} 
 body={"name": "John Doe", "job": "Software Engineer"} 
 </msg>
<msg time="2025-01-04T12:08:55.856640" level="INFO">POST Response : url=https://reqres.in/api/users 
 status=201, reason=Created 
 headers={'Date': 'Sat, 04 Jan 2025 06:08:55 GMT', 'Content-Type': 'application/json; charset=utf-8', 'Content-Length': '95', 'Connection': 'keep-alive', 'Report-To': '{"group":"heroku-nel","max_age":3600,"endpoints":[{"url":"https://nel.heroku.com/reports?ts=1735970935&amp;sid=c4c9725f-1ab0-44d8-820f-430df2718e11&amp;s=XZzamQ514ObmmZ6%2FuzaSGjQNmeC7AwvXrUvid4Jqaq8%3D"}]}', 'Reporting-Endpoints': 'heroku-nel=https://nel.heroku.com/reports?ts=1735970935&amp;sid=c4c9725f-1ab0-44d8-820f-430df2718e11&amp;s=XZzamQ514ObmmZ6%2FuzaSGjQNmeC7AwvXrUvid4Jqaq8%3D', 'Nel': '{"report_to":"heroku-nel","max_age":3600,"success_fraction":0.005,"failure_fraction":0.05,"response_headers":["Via"]}', 'X-Powered-By': 'Express', 'Access-Control-Allow-Origin': '*', 'Etag': 'W/"5f-SCVv2wjtjmKqep8iSNPioHA9pWo"', 'Via': '1.1 vegur', 'CF-Cache-Status': 'DYNAMIC', 'Server': 'cloudflare', 'CF-RAY': '8fc90e8868f07716-DAC', 'server-timing': 'cfL4;desc="?proto=TCP&amp;rtt=4789&amp;min_rtt=4260&amp;rtt_var=1975&amp;sent=6&amp;recv=7&amp;lost=0&amp;retrans=0&amp;sent_bytes=2833&amp;recv_bytes=891&amp;delivery_rate=922535&amp;cwnd=252&amp;unsent_bytes=0&amp;cid=4b9e7a2dfec8162b&amp;ts=602&amp;x=0"'} 
 body={"name":"John Doe","job":"Software Engineer","id":"414","createdAt":"2025-01-04T06:08:55.574Z"} 
 </msg>
<msg time="2025-01-04T12:08:55.856710" level="INFO">D:\Programming\Projects\reqres_api_automation\.venv\Lib\site-packages\urllib3\connectionpool.py:1097: InsecureRequestWarning: Unverified HTTPS request is being made to host 'reqres.in'. Adding certificate verification is strongly advised. See: https://urllib3.readthedocs.io/en/latest/advanced-usage.html#tls-warnings
  warnings.warn(</msg>
<msg time="2025-01-04T12:08:55.857128" level="INFO">${response} = &lt;Response [201]&gt;</msg>
<var>${response}</var>
<arg>reqres</arg>
<arg>/users</arg>
<arg>data=${NEW_USER}</arg>
<arg>headers=${headers}</arg>
<doc>Sends a POST request on a previously created HTTP Session.</doc>
<status status="PASS" start="2025-01-04T12:08:55.173160" elapsed="0.684001"/>
</kw>
<kw name="Status Should Be" owner="RequestsLibrary">
<arg>201</arg>
<arg>${response}</arg>
<doc>Fails if response status code is different than the expected.</doc>
<status status="PASS" start="2025-01-04T12:08:55.857582" elapsed="0.000344"/>
</kw>
<kw name="Dictionary Should Contain Key" owner="Collections">
<arg>${response.json()}</arg>
<arg>id</arg>
<doc>Fails if ``key`` is not found from ``dictionary``.</doc>
<status status="PASS" start="2025-01-04T12:08:55.858267" elapsed="0.000600"/>
</kw>
<kw name="Dictionary Should Contain Value" owner="Collections">
<arg>${response.json()}</arg>
<arg>John Doe</arg>
<doc>Fails if ``value`` is not found from ``dictionary``.</doc>
<status status="PASS" start="2025-01-04T12:08:55.859541" elapsed="0.000460"/>
</kw>
<status status="PASS" start="2025-01-04T12:08:55.171935" elapsed="0.688344"/>
</test>
<test id="s1-t2" name="Get Users List" line="23">
<kw name="GET On Session" owner="RequestsLibrary">
<msg time="2025-01-04T12:08:56.395048" level="INFO">GET Request : url=https://reqres.in/api/users?page=1 
 path_url=/api/users?page=1 
 headers={'User-Agent': 'python-requests/2.32.3', 'Accept-Encoding': 'gzip, deflate', 'Accept': '*/*', 'Connection': 'keep-alive'} 
 body=None 
 </msg>
<msg time="2025-01-04T12:08:56.395150" level="INFO">GET Response : url=https://reqres.in/api/users?page=1 
 status=200, reason=OK 
 headers={'Date': 'Sat, 04 Jan 2025 06:08:56 GMT', 'Content-Type': 'application/json; charset=utf-8', 'Transfer-Encoding': 'chunked', 'Connection': 'keep-alive', 'Report-To': '{"group":"heroku-nel","max_age":3600,"endpoints":[{"url":"https://nel.heroku.com/reports?ts=1735970936&amp;sid=c4c9725f-1ab0-44d8-820f-430df2718e11&amp;s=dRUCJ9UKI3x3x7TMtmLeGlv58Yu7nWPFvEi4rUwQNm8%3D"}]}', 'Reporting-Endpoints': 'heroku-nel=https://nel.heroku.com/reports?ts=1735970936&amp;sid=c4c9725f-1ab0-44d8-820f-430df2718e11&amp;s=dRUCJ9UKI3x3x7TMtmLeGlv58Yu7nWPFvEi4rUwQNm8%3D', 'Nel': '{"report_to":"heroku-nel","max_age":3600,"success_fraction":0.005,"failure_fraction":0.05,"response_headers":["Via"]}', 'X-Powered-By': 'Express', 'Access-Control-Allow-Origin': '*', 'Etag': 'W/"41e-bY3U72nulxuwNd/TmihMEHjLmek"', 'Via': '1.1 vegur', 'Cache-Control': 'max-age=14400', 'CF-Cache-Status': 'MISS', 'Vary': 'Accept-Encoding', 'Server': 'cloudflare', 'CF-RAY': '8fc90e8c3fb87716-DAC', 'Content-Encoding': 'gzip', 'server-timing': 'cfL4;desc="?proto=TCP&amp;rtt=5313&amp;min_rtt=4260&amp;rtt_var=2530&amp;sent=9&amp;recv=9&amp;lost=0&amp;retrans=0&amp;sent_bytes=4491&amp;recv_bytes=1069&amp;delivery_rate=922535&amp;cwnd=254&amp;unsent_bytes=0&amp;cid=4b9e7a2dfec8162b&amp;ts=1141&amp;x=0"'} 
 body={"page":1,"per_page":6,"total":12,"total_pages":2,"data":[{"id":1,"email":"george.bluth@reqres.in","first_name":"George","last_name":"Bluth","avatar":"https://reqres.in/img/faces/1-image.jpg"},{"id":2,"email":"janet.weaver@reqres.in","first_name":"Janet","last_name":"Weaver","avatar":"https://reqres.in/img/faces/2-image.jpg"},{"id":3,"email":"emma.wong@reqres.in","first_name":"Emma","last_name":"Wong","avatar":"https://reqres.in/img/faces/3-image.jpg"},{"id":4,"email":"eve.holt@reqres.in","first_name":"Eve","last_name":"Holt","avatar":"https://reqres.in/img/faces/4-image.jpg"},{"id":5,"email":"charles.morris@reqres.in","first_name":"Charles","last_name":"Morris","avatar":"https://reqres.in/img/faces/5-image.jpg"},{"id":6,"email":"tracey.ramos@reqres.in","first_name":"Tracey","last_name":"Ramos","avatar":"https://reqres.in/img/faces/6-image.jpg"}],"support":{"url":"https://contentcaddy.io?utm_source=reqres&amp;utm_medium=json&amp;utm_campaign=referral","text":"Tired of writing endless social media content? Let Content Caddy generate it for you."}} 
 </msg>
<msg time="2025-01-04T12:08:56.395238" level="INFO">D:\Programming\Projects\reqres_api_automation\.venv\Lib\site-packages\urllib3\connectionpool.py:1097: InsecureRequestWarning: Unverified HTTPS request is being made to host 'reqres.in'. Adding certificate verification is strongly advised. See: https://urllib3.readthedocs.io/en/latest/advanced-usage.html#tls-warnings
  warnings.warn(</msg>
<msg time="2025-01-04T12:08:56.395672" level="INFO">${response} = &lt;Response [200]&gt;</msg>
<var>${response}</var>
<arg>reqres</arg>
<arg>/users</arg>
<arg>params=page=1</arg>
<doc>Sends a GET request on a previously created HTTP Session.</doc>
<status status="PASS" start="2025-01-04T12:08:55.861420" elapsed="0.534292"/>
</kw>
<kw name="Status Should Be" owner="RequestsLibrary">
<arg>200</arg>
<arg>${response}</arg>
<doc>Fails if response status code is different than the expected.</doc>
<status status="PASS" start="2025-01-04T12:08:56.396189" elapsed="0.000348"/>
</kw>
<kw name="Dictionary Should Contain Key" owner="Collections">
<arg>${response.json()}</arg>
<arg>data</arg>
<doc>Fails if ``key`` is not found from ``dictionary``.</doc>
<status status="PASS" start="2025-01-04T12:08:56.396887" elapsed="0.000906"/>
</kw>
<kw name="Dictionary Should Contain Key" owner="Collections">
<arg>${response.json()}</arg>
<arg>total</arg>
<doc>Fails if ``key`` is not found from ``dictionary``.</doc>
<status status="PASS" start="2025-01-04T12:08:56.398057" elapsed="0.000587"/>
</kw>
<kw name="Length Should Be" owner="BuiltIn">
<msg time="2025-01-04T12:08:56.399601" level="INFO">Length is 6.</msg>
<arg>${response.json()["data"]}</arg>
<arg>6</arg>
<doc>Verifies that the length of the given item is correct.</doc>
<status status="PASS" start="2025-01-04T12:08:56.399033" elapsed="0.000649"/>
</kw>
<status status="PASS" start="2025-01-04T12:08:55.861023" elapsed="0.538986"/>
</test>
<test id="s1-t3" name="Get Single User" line="31">
<kw name="Set Variable" owner="BuiltIn">
<msg time="2025-01-04T12:08:56.402122" level="INFO">${user_id} = 2</msg>
<var>${user_id}</var>
<arg>2</arg>
<doc>Returns the given values which can then be assigned to a variables.</doc>
<status status="PASS" start="2025-01-04T12:08:56.401748" elapsed="0.000418"/>
</kw>
<kw name="GET On Session" owner="RequestsLibrary">
<msg time="2025-01-04T12:08:56.426573" level="INFO">GET Request : url=https://reqres.in/api/users/2 
 path_url=/api/users/2 
 headers={'User-Agent': 'python-requests/2.32.3', 'Accept-Encoding': 'gzip, deflate', 'Accept': '*/*', 'Connection': 'keep-alive'} 
 body=None 
 </msg>
<msg time="2025-01-04T12:08:56.426673" level="INFO">GET Response : url=https://reqres.in/api/users/2 
 status=200, reason=OK 
 headers={'Date': 'Sat, 04 Jan 2025 06:08:56 GMT', 'Content-Type': 'application/json; charset=utf-8', 'Transfer-Encoding': 'chunked', 'Connection': 'keep-alive', 'Report-To': '{"group":"heroku-nel","max_age":3600,"endpoints":[{"url":"https://nel.heroku.com/reports?ts=1735967093&amp;sid=c4c9725f-1ab0-44d8-820f-430df2718e11&amp;s=ggFXyCmHpX5Hb7jadjM8gImE%2F094kgefoa0crW7iN8s%3D"}]}', 'Reporting-Endpoints': 'heroku-nel=https://nel.heroku.com/reports?ts=1735967093&amp;sid=c4c9725f-1ab0-44d8-820f-430df2718e11&amp;s=ggFXyCmHpX5Hb7jadjM8gImE%2F094kgefoa0crW7iN8s%3D', 'Nel': '{"report_to":"heroku-nel","max_age":3600,"success_fraction":0.005,"failure_fraction":0.05,"response_headers":["Via"]}', 'X-Powered-By': 'Express', 'Access-Control-Allow-Origin': '*', 'Etag': 'W/"152-ApQgGHL6RKwaebFlrPCYPBO1xHg"', 'Via': '1.1 vegur', 'Cache-Control': 'max-age=14400', 'CF-Cache-Status': 'HIT', 'Age': '3843', 'Vary': 'Accept-Encoding', 'Server': 'cloudflare', 'CF-RAY': '8fc90e8f8e067716-DAC', 'Content-Encoding': 'gzip', 'server-timing': 'cfL4;desc="?proto=TCP&amp;rtt=5082&amp;min_rtt=3406&amp;rtt_var=2360&amp;sent=14&amp;recv=11&amp;lost=0&amp;retrans=0&amp;sent_bytes=6115&amp;recv_bytes=1242&amp;delivery_rate=1513138&amp;cwnd=254&amp;unsent_bytes=0&amp;cid=4b9e7a2dfec8162b&amp;ts=1165&amp;x=0"'} 
 body={"data":{"id":2,"email":"janet.weaver@reqres.in","first_name":"Janet","last_name":"Weaver","avatar":"https://reqres.in/img/faces/2-image.jpg"},"support":{"url":"https://contentcaddy.io?utm_source=reqres&amp;utm_medium=json&amp;utm_campaign=referral","text":"Tired of writing endless social media content? Let Content Caddy generate it for you."}} 
 </msg>
<msg time="2025-01-04T12:08:56.426756" level="INFO">D:\Programming\Projects\reqres_api_automation\.venv\Lib\site-packages\urllib3\connectionpool.py:1097: InsecureRequestWarning: Unverified HTTPS request is being made to host 'reqres.in'. Adding certificate verification is strongly advised. See: https://urllib3.readthedocs.io/en/latest/advanced-usage.html#tls-warnings
  warnings.warn(</msg>
<msg time="2025-01-04T12:08:56.427123" level="INFO">${response} = &lt;Response [200]&gt;</msg>
<var>${response}</var>
<arg>reqres</arg>
<arg>/users/${user_id}</arg>
<doc>Sends a GET request on a previously created HTTP Session.</doc>
<status status="PASS" start="2025-01-04T12:08:56.402488" elapsed="0.024670"/>
</kw>
<kw name="Status Should Be" owner="RequestsLibrary">
<arg>200</arg>
<arg>${response}</arg>
<doc>Fails if response status code is different than the expected.</doc>
<status status="PASS" start="2025-01-04T12:08:56.427480" elapsed="0.000198"/>
</kw>
<kw name="Dictionary Should Contain Key" owner="Collections">
<arg>${response.json()}</arg>
<arg>data</arg>
<doc>Fails if ``key`` is not found from ``dictionary``.</doc>
<status status="PASS" start="2025-01-04T12:08:56.427951" elapsed="0.000617"/>
</kw>
<kw name="Should Be Equal As Numbers" owner="BuiltIn">
<msg time="2025-01-04T12:08:56.429517" level="INFO">Argument types are:
&lt;class 'int'&gt;
&lt;class 'str'&gt;</msg>
<arg>${response.json()["data"]["id"]}</arg>
<arg>${user_id}</arg>
<doc>Fails if objects are unequal after converting them to real numbers.</doc>
<status status="PASS" start="2025-01-04T12:08:56.428876" elapsed="0.000723"/>
</kw>
<status status="PASS" start="2025-01-04T12:08:56.400907" elapsed="0.028940"/>
</test>
<test id="s1-t4" name="Update User" line="39">
<kw name="Set Variable" owner="BuiltIn">
<msg time="2025-01-04T12:08:56.431186" level="INFO">${user_id} = 2</msg>
<var>${user_id}</var>
<arg>2</arg>
<doc>Returns the given values which can then be assigned to a variables.</doc>
<status status="PASS" start="2025-01-04T12:08:56.430947" elapsed="0.000294"/>
</kw>
<kw name="Create Dictionary" owner="BuiltIn">
<msg time="2025-01-04T12:08:56.431941" level="INFO">${headers} = {'Content-Type': 'application/json'}</msg>
<var>${headers}</var>
<arg>Content-Type=application/json</arg>
<doc>Creates and returns a dictionary based on the given ``items``.</doc>
<status status="PASS" start="2025-01-04T12:08:56.431661" elapsed="0.000307"/>
</kw>
<kw name="PUT On Session" owner="RequestsLibrary">
<msg time="2025-01-04T12:08:56.920084" level="INFO">PUT Request : url=https://reqres.in/api/users/2 
 path_url=/api/users/2 
 headers={'User-Agent': 'python-requests/2.32.3', 'Accept-Encoding': 'gzip, deflate', 'Accept': '*/*', 'Connection': 'keep-alive', 'Content-Type': 'application/json', 'Content-Length': '50'} 
 body={"name": "John Updated", "job": "Senior Engineer"} 
 </msg>
<msg time="2025-01-04T12:08:56.920206" level="INFO">PUT Response : url=https://reqres.in/api/users/2 
 status=200, reason=OK 
 headers={'Date': 'Sat, 04 Jan 2025 06:08:56 GMT', 'Content-Type': 'application/json; charset=utf-8', 'Transfer-Encoding': 'chunked', 'Connection': 'keep-alive', 'Report-To': '{"group":"heroku-nel","max_age":3600,"endpoints":[{"url":"https://nel.heroku.com/reports?ts=1735970936&amp;sid=c4c9725f-1ab0-44d8-820f-430df2718e11&amp;s=dRUCJ9UKI3x3x7TMtmLeGlv58Yu7nWPFvEi4rUwQNm8%3D"}]}', 'Reporting-Endpoints': 'heroku-nel=https://nel.heroku.com/reports?ts=1735970936&amp;sid=c4c9725f-1ab0-44d8-820f-430df2718e11&amp;s=dRUCJ9UKI3x3x7TMtmLeGlv58Yu7nWPFvEi4rUwQNm8%3D', 'Nel': '{"report_to":"heroku-nel","max_age":3600,"success_fraction":0.005,"failure_fraction":0.05,"response_headers":["Via"]}', 'X-Powered-By': 'Express', 'Access-Control-Allow-Origin': '*', 'Etag': 'W/"56-/Os3avW8xlwLjkg7UWQKg9KnsXs"', 'Via': '1.1 vegur', 'CF-Cache-Status': 'DYNAMIC', 'Vary': 'Accept-Encoding', 'Server': 'cloudflare', 'CF-RAY': '8fc90e8fbe497716-DAC', 'Content-Encoding': 'gzip', 'server-timing': 'cfL4;desc="?proto=TCP&amp;rtt=5886&amp;min_rtt=3406&amp;rtt_var=3378&amp;sent=19&amp;recv=14&amp;lost=0&amp;retrans=0&amp;sent_bytes=7592&amp;recv_bytes=1539&amp;delivery_rate=1513138&amp;cwnd=254&amp;unsent_bytes=0&amp;cid=4b9e7a2dfec8162b&amp;ts=1663&amp;x=0"'} 
 body={"name":"John Updated","job":"Senior Engineer","updatedAt":"2025-01-04T06:08:56.633Z"} 
 </msg>
<msg time="2025-01-04T12:08:56.920371" level="INFO">D:\Programming\Projects\reqres_api_automation\.venv\Lib\site-packages\urllib3\connectionpool.py:1097: InsecureRequestWarning: Unverified HTTPS request is being made to host 'reqres.in'. Adding certificate verification is strongly advised. See: https://urllib3.readthedocs.io/en/latest/advanced-usage.html#tls-warnings
  warnings.warn(</msg>
<msg time="2025-01-04T12:08:56.921294" level="INFO">${response} = &lt;Response [200]&gt;</msg>
<var>${response}</var>
<arg>reqres</arg>
<arg>/users/${user_id}</arg>
<arg>data=${UPDATED_USER}</arg>
<arg>headers=${headers}</arg>
<doc>Sends a PUT request on a previously created HTTP Session.</doc>
<status status="PASS" start="2025-01-04T12:08:56.432281" elapsed="0.489051"/>
</kw>
<kw name="Status Should Be" owner="RequestsLibrary">
<arg>200</arg>
<arg>${response}</arg>
<doc>Fails if response status code is different than the expected.</doc>
<status status="PASS" start="2025-01-04T12:08:56.921737" elapsed="0.000340"/>
</kw>
<kw name="Dictionary Should Contain Value" owner="Collections">
<arg>${response.json()}</arg>
<arg>John Updated</arg>
<doc>Fails if ``value`` is not found from ``dictionary``.</doc>
<status status="PASS" start="2025-01-04T12:08:56.922503" elapsed="0.000588"/>
</kw>
<kw name="Dictionary Should Contain Key" owner="Collections">
<arg>${response.json()}</arg>
<arg>updatedAt</arg>
<doc>Fails if ``key`` is not found from ``dictionary``.</doc>
<status status="PASS" start="2025-01-04T12:08:56.923356" elapsed="0.000360"/>
</kw>
<status status="PASS" start="2025-01-04T12:08:56.430531" elapsed="0.493434"/>
</test>
<test id="s1-t5" name="Delete User" line="52">
<kw name="Set Variable" owner="BuiltIn">
<msg time="2025-01-04T12:08:56.925541" level="INFO">${user_id} = 2</msg>
<var>${user_id}</var>
<arg>2</arg>
<doc>Returns the given values which can then be assigned to a variables.</doc>
<status status="PASS" start="2025-01-04T12:08:56.925343" elapsed="0.000226"/>
</kw>
<kw name="DELETE On Session" owner="RequestsLibrary">
<msg time="2025-01-04T12:08:57.407606" level="INFO">DELETE Request : url=https://reqres.in/api/users/2 
 path_url=/api/users/2 
 headers={'User-Agent': 'python-requests/2.32.3', 'Accept-Encoding': 'gzip, deflate', 'Accept': '*/*', 'Connection': 'keep-alive', 'Content-Length': '0'} 
 body=None 
 </msg>
<msg time="2025-01-04T12:08:57.407747" level="INFO">DELETE Response : url=https://reqres.in/api/users/2 
 status=204, reason=No Content 
 headers={'Date': 'Sat, 04 Jan 2025 06:08:57 GMT', 'Content-Length': '0', 'Connection': 'keep-alive', 'Report-To': '{"group":"heroku-nel","max_age":3600,"endpoints":[{"url":"https://nel.heroku.com/reports?ts=1735970937&amp;sid=c4c9725f-1ab0-44d8-820f-430df2718e11&amp;s=vs7%2B7j4jXqyl7njLLwBq40rcYZWJBxChwlV7OHncSgo%3D"}]}', 'Reporting-Endpoints': 'heroku-nel=https://nel.heroku.com/reports?ts=1735970937&amp;sid=c4c9725f-1ab0-44d8-820f-430df2718e11&amp;s=vs7%2B7j4jXqyl7njLLwBq40rcYZWJBxChwlV7OHncSgo%3D', 'Nel': '{"report_to":"heroku-nel","max_age":3600,"success_fraction":0.005,"failure_fraction":0.05,"response_headers":["Via"]}', 'X-Powered-By': 'Express', 'Access-Control-Allow-Origin': '*', 'Etag': 'W/"2-vyGp6PvFo4RvsFtPoIWeCReyIC8"', 'Via': '1.1 vegur', 'CF-Cache-Status': 'DYNAMIC', 'Server': 'cloudflare', 'CF-RAY': '8fc90e92cc7d7716-DAC', 'server-timing': 'cfL4;desc="?proto=TCP&amp;rtt=5943&amp;min_rtt=3406&amp;rtt_var=2649&amp;sent=22&amp;recv=16&amp;lost=0&amp;retrans=0&amp;sent_bytes=8865&amp;recv_bytes=1734&amp;delivery_rate=1513138&amp;cwnd=254&amp;unsent_bytes=0&amp;cid=4b9e7a2dfec8162b&amp;ts=2154&amp;x=0"'} 
 body=None 
 </msg>
<msg time="2025-01-04T12:08:57.407848" level="INFO">D:\Programming\Projects\reqres_api_automation\.venv\Lib\site-packages\urllib3\connectionpool.py:1097: InsecureRequestWarning: Unverified HTTPS request is being made to host 'reqres.in'. Adding certificate verification is strongly advised. See: https://urllib3.readthedocs.io/en/latest/advanced-usage.html#tls-warnings
  warnings.warn(</msg>
<msg time="2025-01-04T12:08:57.408198" level="INFO">${response} = &lt;Response [204]&gt;</msg>
<var>${response}</var>
<arg>reqres</arg>
<arg>/users/${user_id}</arg>
<doc>Sends a DELETE request on a previously created HTTP Session.</doc>
<status status="PASS" start="2025-01-04T12:08:56.925945" elapsed="0.482281"/>
</kw>
<kw name="Status Should Be" owner="RequestsLibrary">
<arg>204</arg>
<arg>${response}</arg>
<doc>Fails if response status code is different than the expected.</doc>
<status status="PASS" start="2025-01-04T12:08:57.408557" elapsed="0.000240"/>
</kw>
<status status="PASS" start="2025-01-04T12:08:56.924793" elapsed="0.484316"/>
</test>
<status status="PASS" start="2025-01-04T12:08:54.722443" elapsed="2.687890"/>
</suite>
<statistics>
<total>
<stat pass="5" fail="0" skip="0">All Tests</stat>
</total>
<tag>
</tag>
<suite>
<stat pass="5" fail="0" skip="0" id="s1" name="Reqres">Reqres</stat>
</suite>
</statistics>
<errors>
</errors>
</robot>
